<svg width="20" height="20" viewBox="0 0 20 20" fill="none" xmlns="http://www.w3.org/2000/svg">
<path d="M18.0005 3H2.00049L8.40049 10.568V15.8L11.6005 17.4V10.568L18.0005 3Z" stroke="#041967" stroke-width="1.5" stroke-linecap="round" stroke-linejoin="round"/>
</svg>
