<svg width="20" height="20" viewBox="0 0 20 20" fill="none" xmlns="http://www.w3.org/2000/svg">
<path d="M14.0989 7.43935C14.0989 6.26196 13.6312 5.1328 12.7986 4.30026C11.9661 3.46772 10.8369 3 9.65952 3C8.48213 3 7.35296 3.46772 6.52042 4.30026C5.68788 5.1328 5.22016 6.26196 5.22016 7.43935C5.22016 12.6186 3.00049 14.0984 3.00049 14.0984H16.3185C16.3185 14.0984 14.0989 12.6186 14.0989 7.43935Z" stroke="#3B3B3B" stroke-width="1.5" stroke-linecap="round" stroke-linejoin="round"/>
<path d="M10.9389 17.0558C10.8089 17.28 10.6221 17.4662 10.3975 17.5956C10.1729 17.725 9.91816 17.7931 9.65892 17.7931C9.39968 17.7931 9.14498 17.725 8.92034 17.5956C8.6957 17.4662 8.50899 17.28 8.37891 17.0558" stroke="#3B3B3B" stroke-width="2" stroke-linecap="round" stroke-linejoin="round"/>
</svg>
